<?xml version="1.0" encoding="UTF-8" standalone="no"?>
<!DOCTYPE svg PUBLIC "-//W3C//DTD SVG 1.1//EN" "http://www.w3.org/Graphics/SVG/1.1/DTD/svg11.dtd">
<svg width="100%" height="100%" viewBox="0 0 24 24" version="1.1" xmlns="http://www.w3.org/2000/svg" xmlns:xlink="http://www.w3.org/1999/xlink" xml:space="preserve" xmlns:serif="http://www.serif.com/" style="fill-rule:evenodd;clip-rule:evenodd;stroke-linecap:round;stroke-linejoin:round;">
    <path d="M13,6L16,6C17.097,6 18,6.903 18,8L18,15" style="fill:none;fill-rule:nonzero;stroke:black;stroke-width:2px;"/>
    <g transform="matrix(-1,1.22465e-16,-1.22465e-16,-1,24,24)">
        <path d="M13,6L16,6C17.097,6 18,6.903 18,8L18,15" style="fill:none;fill-rule:nonzero;stroke:black;stroke-width:2px;"/>
    </g>
    <rect x="3" y="3" width="6" height="6" style="fill:none;stroke:black;stroke-width:2px;stroke-miterlimit:1.5;"/>
    <g transform="matrix(1,0,0,1,12,12)">
        <rect x="3" y="3" width="6" height="6" style="fill:none;stroke:black;stroke-width:2px;stroke-miterlimit:1.5;"/>
    </g>
</svg>
